{
  "swagger": "2.0",
  "info": {
    "title": "API V1",
    "version": "v1"
  },
  "definitions": {
    "user": {
      "type": "object",
      "properties": {
        "user": {
          "type": "object",
          "required": [
            "first_name",
            "last_name",
            "salary"
          ],
          "properties": {
            "first_name": {
              "type": "string",
              "example": "test1"
            },
            "last_name": {
              "type": "string",
              "example": "test1"
            },
            "salary": {
              "type": "integer",
              "example": 10
            }
          }
        }
      }
    }
  },
  "paths": {
    "/users": {
      "get": {
        "responses": {
          "200": {
            "description": "Return all the available users"
          }
        },
        "tags": [
          "users"
        ],
        "summary": "Get users",
        "consumes": [
          "application/json"
        ],
        "produces": [
          "application/json"
        ]
      },
      "post": {
        "responses": {
          "201": {
            "description": "User created"
          }
        },
        "parameters": [
          {
            "name": "user",
            "in": "body",
            "required": true,
            "schema": {
              "$ref": "#/definitions/user"
            }
          }
        ],
        "tags": [
          "users"
        ],
        "summary": "Create a new user",
        "consumes": [
          "application/json"
        ],
        "produces": [
          "application/json"
        ]
      }
    },
    "/users/{id}": {
      "get": {
        "responses": {
          "200": {
            "description": "Return the selected user"
          },
          "404": {
            "description": "User not found"
          }
        },
        "parameters": [
          {
            "name": "id",
            "in": "path",
            "type": "integer",
            "required": true,
            "description": "User ID"
          }
        ],
        "tags": [
          "users"
        ],
        "summary": "Get User",
        "consumes": [
          "application/json"
        ],
        "produces": [
          "application/json"
        ]
      },
      "put": {
        "responses": {
          "200": {
            "description": "User updated"
          },
          "404": {
            "description": "User not found"
          }
        },
        "parameters": [
          {
            "name": "id",
            "in": "path",
            "type": "integer",
            "required": true,
            "description": "User ID"
          },
          {
            "name": "user",
            "in": "body",
            "required": true,
            "schema": {
              "$ref": "#/definitions/user"
            }
          }
        ],
        "tags": [
          "users"
        ],
        "summary": "Update User",
        "consumes": [
          "application/json"
        ],
        "produces": [
          "application/json"
        ]
      },
      "delete": {
        "responses": {
          "200": {
            "description": "Delete the selected user"
          },
          "404": {
            "description": "User not found"
          }
        },
        "parameters": [
          {
            "name": "id",
            "in": "path",
            "type": "integer",
            "required": true,
            "description": "User ID"
          }
        ],
        "tags": [
          "users"
        ],
        "summary": "Delete User",
        "consumes": [
          "application/json"
        ],
        "produces": [
          "application/json"
        ]
      }
    }
  }
}
